{
  "Checks outside of Serbia": {
    "maps": {
      "Bosnia-Herzegovina": "https://download.geofabrik.de/europe/bosnia-herzegovina-latest.osm.pbf",
      "Croatia": "https://download.geofabrik.de/europe/croatia-latest.osm.pbf",
      "Kosovo": "https://download.geofabrik.de/europe/kosovo-latest.osm.pbf",
      "Macedonia": "https://download.geofabrik.de/europe/macedonia-latest.osm.pbf",
      "Montenegro": "https://download.geofabrik.de/europe/montenegro-latest.osm.pbf",
      "Slovenia" : "https://download.geofabrik.de/europe/slovenia-latest.osm.pbf"
    },
    "checks": [
      "checks.LatinNameExistsCheck",
      "checks.LatinNameSameAsCyrillicCheck",
      "checks.LatinNameNotInCyrillicCheck"
    ]
  },
  "Serbia checks": {
    "maps": {
      "PBF": "https://download.geofabrik.de/europe/serbia-latest.osm.pbf",
      "Sophox converting name:sr to cyrillic": "sparql/changing_namesr_to_cyrillic.sparql"
    },
    "checks": [
      "checks.WikipediaEntryExistsCheck",
      "checks.WikipediaEntryIsInSerbianCheck",
      "checks.WikipediaEntryValidCheck",
      "checks.WikidataEntryExistsCheck",
      "checks.GenericSophoxCheck"
    ]
  },
  "Name is not cyrillic": {
    "maps": {
      "Overpass": "overpass/name_is_not_cyrillic.ot"
    },
    "checks": [
      "checks.OverpassNameInNotCyrillic"
    ]
  },
  "Name is missing": {
    "maps": {
      "Overpass": "overpass/adding_name_from_namesr.ot"
    },
    "checks": [
      "checks.OverpassNameIsMissingNameSrExists"
    ]
  },
  "name:sr is missing or wrong": {
    "maps": {
      "name:sr missing": "overpass/namesr_missing_and_name_in_latin.ot",
      "name:sr not equal to name": "overpass/namesr_not_equal_name.ot",
      "name:sr is not in cyrillic": "overpass/namesr_is_not_cyrillic.ot"
    },
    "checks": [
      "checks.OverpassNameSrChecks"
    ]
  },
  "name:sr-Latn": {
    "maps": {
      "name:sr-Latn missing": "overpass/namesrlatn_missing.ot",
      "name:sr-Latn exists": "overpass/namesrlatn_exists.ot"
    },
    "checks": [
      "checks.OverpassNameSrLatnChecks"
    ]
  },
  "Admin levels": {
    "maps": {
      "adminlevel9": "overpass/adminlevel9.ot",
      "adminlevel8": "overpass/adminlevel8.ot"
    },
    "checks": [
      "checks.OverpassNameAdminLevelChecks"
    ]
  },
  "International names bug": {
    "maps": {
      "Adding int name": "overpass/adding_int_name.ot"
    },
    "checks": [
      "checks.OverpassIntNameChecks"
    ]
  },
  "Redudant name:en": {
    "maps": {
      "Removing unneeded name:en": "overpass/remove_redudant_nameen.ot"
    },
    "checks": [
      "checks.OverpassRedudantNameEnChecks"
    ]
  }
}
